Assignment 8/Assignment 1 (Factorial Accelerator)/Vivado Files/Assignment_1.sim/sim_1/behav/xsim/simulate.log
Vivado Simulator 2018.3
Time resolution is 1 ps
Input: 14, Calc_prod:  1278945280, prod:          0. Testbench error!
Input: 13, Calc_prod:  1932053504, prod:          0. Testbench error!
Input: 12, Calc_prod:   479001600, prod:  479001600. Testbench successful!
Input: 11, Calc_prod:    39916800, prod:   39916800. Testbench successful!
Input: 10, Calc_prod:     3628800, prod:    3628800. Testbench successful!
Input:  9, Calc_prod:      362880, prod:     362880. Testbench successful!
Input:  8, Calc_prod:       40320, prod:      40320. Testbench successful!
Input:  7, Calc_prod:        5040, prod:       5040. Testbench successful!
Input:  6, Calc_prod:         720, prod:        720. Testbench successful!
Input:  5, Calc_prod:         120, prod:        120. Testbench successful!
Input:  4, Calc_prod:          24, prod:         24. Testbench successful!
Input:  3, Calc_prod:           6, prod:          6. Testbench successful!
Input:  2, Calc_prod:           2, prod:          2. Testbench successful!
Input:  1, Calc_prod:           1, prod:          1. Testbench successful!
